…
You can download the complete data and use it locally.

```{r, eval=FALSE}
url_data <- "https://colornames.org/download/colornames.zip"
your_file_path <- paste0(getwd(), "/colornames-", Sys.Date(), ".zip")
download.file(url = url_data, destfile = your_file_path)
colornames_df <- readr::read_csv(your_file_path)

# Joke with hex codes 00000 to 00003
colornames_df
```
    
    # # A tibble: 3,157,757 × 3
    #    hex bestName                     votes
    #    <chr>   <chr>                        <dbl>
    #  1 000000  Dude Turn The Lights Back On  5351
    #  2 000001  It's Still Basically Black     729
    #  3 000002  Still Black                    121
    #  4 000003  So Close To Black It Hurts     145
    #  5 000004  Blackerererer                   27
    #  6 000005  Jet Black Heart                 16
    #  7 000006  Abaddon                         16
    #  8 000007  Double O Seven                  56
    #  9 000008  Closed Eyes                     26
    # 10 000009  Really Dark Blue                29
    # # ℹ 3,157,747 more rows
…
